<?xml version="1.0" encoding="UTF-8" standalone="no"?>
<svg
   xmlns:dc="http://purl.org/dc/elements/1.1/"
   xmlns:cc="http://creativecommons.org/ns#"
   xmlns:rdf="http://www.w3.org/1999/02/22-rdf-syntax-ns#"
   xmlns:svg="http://www.w3.org/2000/svg"
   xmlns="http://www.w3.org/2000/svg"
   xmlns:sodipodi="http://sodipodi.sourceforge.net/DTD/sodipodi-0.dtd"
   xmlns:inkscape="http://www.inkscape.org/namespaces/inkscape"
   id="svg864"
   version="1.1"
   viewBox="0 0 40 40"
   height="40mm"
   width="40mm"
   sodipodi:docname="lewp-favicon.inkscape.svg"
   inkscape:version="0.92.4 (5da689c313, 2019-01-14)">
  <sodipodi:namedview
     pagecolor="#ffffff"
     bordercolor="#666666"
     borderopacity="1"
     objecttolerance="10"
     gridtolerance="10"
     guidetolerance="10"
     inkscape:pageopacity="0"
     inkscape:pageshadow="2"
     inkscape:window-width="3840"
     inkscape:window-height="2032"
     id="namedview19"
     showgrid="false"
     showborder="false"
     inkscape:zoom="8.8305852"
     inkscape:cx="-7.3956537"
     inkscape:cy="42.679332"
     inkscape:window-x="0"
     inkscape:window-y="54"
     inkscape:window-maximized="1"
     inkscape:current-layer="g989" />
  <defs
     id="defs858" />
  <metadata
     id="metadata861">
    <rdf:RDF>
      <cc:Work
         rdf:about="">
        <dc:format>image/svg+xml</dc:format>
        <dc:type
           rdf:resource="http://purl.org/dc/dcmitype/StillImage" />
        <dc:title></dc:title>
      </cc:Work>
    </rdf:RDF>
  </metadata>
  <g
     transform="translate(-79.847473,-49.113098)"
     id="layer1">
    <circle
       r="20"
       cy="69.113098"
       cx="99.847473"
       id="path1442"
       style="fill:#154681;fill-opacity:1;stroke:none;stroke-width:0.67673886;stroke-linecap:butt;stroke-linejoin:miter;stroke-miterlimit:4;stroke-dasharray:none;stroke-opacity:1;paint-order:normal" />
    <g
       transform="translate(83.394583,-120.61369)"
       id="g989">
      <circle
         style="fill:#ffffff;fill-opacity:1;stroke:none;stroke-width:0.542;stroke-linecap:butt;stroke-linejoin:miter;stroke-miterlimit:4;stroke-dasharray:none;stroke-opacity:1;paint-order:normal"
         id="path871"
         cx="6.4679608"
         cy="178.9431"
         r="1" />
      <path
         style="fill:none;stroke:#ffffff;stroke-width:0.24230829px;stroke-linecap:butt;stroke-linejoin:miter;stroke-opacity:1"
         d="m 6.4679609,181.15607 v 19.45722"
         id="path937" />
      <path
         style="fill:none;stroke:#ffffff;stroke-width:0.13485307px;stroke-linecap:butt;stroke-linejoin:miter;stroke-opacity:1"
         d="m 12.589115,186.17586 h -6"
         id="path937-2" />
      <path
         style="fill:none;stroke:#ffffff;stroke-width:0.13485307px;stroke-linecap:butt;stroke-linejoin:miter;stroke-opacity:1"
         d="m 12.589115,193.41059 h -6"
         id="path937-2-3" />
      <path
         style="fill:none;stroke:#ffffff;stroke-width:0.13485307px;stroke-linecap:butt;stroke-linejoin:miter;stroke-opacity:1"
         d="m 12.589115,200.54586 h -6"
         id="path937-2-3-6" />
      <text
         id="text993"
         y="201.51048"
         x="13.118281"
         style="font-style:normal;font-weight:normal;font-size:4.23333322px;line-height:1.25;font-family:'Fira Sans';letter-spacing:0px;word-spacing:0px;fill:#ffffff;fill-opacity:1;stroke:none;stroke-width:0.26458332;-inkscape-font-specification:'Fira Sans, Normal';font-stretch:normal;font-variant:normal;text-anchor:start;text-align:start;writing-mode:lr;font-variant-ligatures:normal;font-variant-caps:normal;font-variant-numeric:normal;font-feature-settings:normal;"
         xml:space="preserve"><tspan
           style="font-style:normal;font-variant:normal;font-weight:normal;font-stretch:normal;font-size:4.23333322px;font-family:'Fira Sans';-inkscape-font-specification:'Fira Sans, Normal';font-variant-ligatures:normal;font-variant-caps:normal;font-variant-numeric:normal;font-feature-settings:normal;text-align:start;writing-mode:lr;text-anchor:start;fill:#ffffff;fill-opacity:1;stroke-width:0.26458332;"
           y="201.51048"
           x="13.118281"
           id="tspan991">www</tspan></text>
      <text
         id="text993-9"
         y="194.72575"
         x="12.930524"
         style="font-style:normal;font-weight:normal;font-size:4.23333322px;line-height:1.25;font-family:'Fira Sans';letter-spacing:0px;word-spacing:0px;fill:#ffffff;fill-opacity:1;stroke:none;stroke-width:0.26458332;-inkscape-font-specification:'Fira Sans, Normal';font-stretch:normal;font-variant:normal;text-anchor:start;text-align:start;writing-mode:lr;font-variant-ligatures:normal;font-variant-caps:normal;font-variant-numeric:normal;font-feature-settings:normal;"
         xml:space="preserve"><tspan
           style="font-style:normal;font-variant:normal;font-weight:normal;font-stretch:normal;font-size:4.23333322px;font-family:'Fira Sans';-inkscape-font-specification:'Fira Sans, Normal';font-variant-ligatures:normal;font-variant-caps:normal;font-variant-numeric:normal;font-feature-settings:normal;text-align:start;writing-mode:lr;text-anchor:start;fill:#ffffff;fill-opacity:1;stroke-width:0.26458332;"
           y="194.72575"
           x="12.930524"
           id="tspan991-0">modules</tspan></text>
      <text
         id="text993-9-7"
         y="187.43677"
         x="12.904685"
         style="font-style:normal;font-weight:normal;font-size:4.23333322px;line-height:1.25;font-family:'Fira Sans';letter-spacing:0px;word-spacing:0px;fill:#ffffff;fill-opacity:1;stroke:none;stroke-width:0.26458332;-inkscape-font-specification:'Fira Sans, Normal';font-stretch:normal;font-variant:normal;text-anchor:start;text-align:start;writing-mode:lr;font-variant-ligatures:normal;font-variant-caps:normal;font-variant-numeric:normal;font-feature-settings:normal;"
         xml:space="preserve"><tspan
           style="font-style:normal;font-variant:normal;font-weight:normal;font-stretch:normal;font-size:4.23333322px;font-family:'Fira Sans';-inkscape-font-specification:'Fira Sans, Normal';font-variant-ligatures:normal;font-variant-caps:normal;font-variant-numeric:normal;font-feature-settings:normal;text-align:start;writing-mode:lr;text-anchor:start;fill:#ffffff;fill-opacity:1;stroke-width:0.26458332;"
           y="187.43677"
           x="12.904685"
           id="tspan991-0-9">etc</tspan></text>
    </g>
  </g>
</svg>
