<?xml version="1.0" encoding="UTF-8" standalone="no"?>
<svg
   xmlns:dc="http://purl.org/dc/elements/1.1/"
   xmlns:cc="http://creativecommons.org/ns#"
   xmlns:rdf="http://www.w3.org/1999/02/22-rdf-syntax-ns#"
   xmlns:svg="http://www.w3.org/2000/svg"
   xmlns="http://www.w3.org/2000/svg"
   id="svg4820"
   version="1.1"
   viewBox="0 0 52.981357 26.576867"
   height="100.448"
   width="200.24449">
  <defs
     id="defs4814">
    <marker
       orient="auto"
       refY="0"
       refX="0"
       id="marker1349"
       style="overflow:visible">
      <path
         id="path1347"
         d="M 5.77,0 -2.88,5 V -5 Z"
         style="fill:#154681;fill-opacity:1;fill-rule:evenodd;stroke:#154681;stroke-width:1.00000003pt;stroke-opacity:1"
         transform="scale(-0.4)" />
    </marker>
    <marker
       orient="auto"
       refY="0"
       refX="0"
       id="marker1345"
       style="overflow:visible">
      <path
         id="path1343"
         d="M 5.77,0 -2.88,5 V -5 Z"
         style="fill:#154681;fill-opacity:1;fill-rule:evenodd;stroke:#154681;stroke-width:1.00000003pt;stroke-opacity:1"
         transform="scale(-0.4)" />
    </marker>
    <marker
       style="overflow:visible"
       id="marker1295"
       refX="0"
       refY="0"
       orient="auto">
      <path
         transform="scale(0.4)"
         style="fill:#154681;fill-opacity:1;fill-rule:evenodd;stroke:#154681;stroke-width:1.00000003pt;stroke-opacity:1"
         d="M 5.77,0 -2.88,5 V -5 Z"
         id="path1293" />
    </marker>
    <marker
       style="overflow:visible"
       id="marker1291"
       refX="0"
       refY="0"
       orient="auto">
      <path
         transform="scale(0.4)"
         style="fill:#154681;fill-opacity:1;fill-rule:evenodd;stroke:#154681;stroke-width:1.00000003pt;stroke-opacity:1"
         d="M 5.77,0 -2.88,5 V -5 Z"
         id="path1289" />
    </marker>
    <marker
       style="overflow:visible"
       id="TriangleOutM"
       refX="0"
       refY="0"
       orient="auto">
      <path
         transform="scale(0.4)"
         style="fill:#154681;fill-opacity:1;fill-rule:evenodd;stroke:#154681;stroke-width:1.00000003pt;stroke-opacity:1"
         d="M 5.77,0 -2.88,5 V -5 Z"
         id="path1086" />
    </marker>
    <marker
       style="overflow:visible"
       id="marker1238"
       refX="0"
       refY="0"
       orient="auto">
      <path
         transform="scale(-0.4)"
         style="fill:#154681;fill-opacity:1;fill-rule:evenodd;stroke:#154681;stroke-width:1.00000003pt;stroke-opacity:1"
         d="M 5.77,0 -2.88,5 V -5 Z"
         id="path1236" />
    </marker>
    <marker
       style="overflow:visible"
       id="TriangleInM"
       refX="0"
       refY="0"
       orient="auto">
      <path
         transform="scale(-0.4)"
         style="fill:#154681;fill-opacity:1;fill-rule:evenodd;stroke:#154681;stroke-width:1.00000003pt;stroke-opacity:1"
         d="M 5.77,0 -2.88,5 V -5 Z"
         id="path1077" />
    </marker>
    <marker
       style="overflow:visible"
       id="Arrow2Mstart"
       refX="0"
       refY="0"
       orient="auto">
      <path
         transform="scale(0.6)"
         d="M 8.7185878,4.0337352 -2.2072895,0.01601326 8.7185884,-4.0017078 c -1.7454984,2.3720609 -1.7354408,5.6174519 -6e-7,8.035443 z"
         style="fill:#154681;fill-opacity:1;fill-rule:evenodd;stroke:#154681;stroke-width:0.625;stroke-linejoin:round;stroke-opacity:1"
         id="path965" />
    </marker>
    <marker
       style="overflow:visible"
       id="TriangleInL"
       refX="0"
       refY="0"
       orient="auto">
      <path
         transform="scale(-0.8)"
         style="fill:#154681;fill-opacity:1;fill-rule:evenodd;stroke:#154681;stroke-width:1.00000003pt;stroke-opacity:1"
         d="M 5.77,0 -2.88,5 V -5 Z"
         id="path1074" />
    </marker>
    <marker
       style="overflow:visible"
       id="Arrow2Lstart"
       refX="0"
       refY="0"
       orient="auto">
      <path
         transform="matrix(1.1,0,0,1.1,1.1,0)"
         d="M 8.7185878,4.0337352 -2.2072895,0.01601326 8.7185884,-4.0017078 c -1.7454984,2.3720609 -1.7354408,5.6174519 -6e-7,8.035443 z"
         style="fill:#004200;fill-opacity:1;fill-rule:evenodd;stroke:#004200;stroke-width:0.625;stroke-linejoin:round;stroke-opacity:1"
         id="path959" />
    </marker>
    <marker
       style="overflow:visible"
       id="Arrow1Lstart"
       refX="0"
       refY="0"
       orient="auto">
      <path
         transform="matrix(0.8,0,0,0.8,10,0)"
         style="fill:#004200;fill-opacity:1;fill-rule:evenodd;stroke:#004200;stroke-width:1.00000003pt;stroke-opacity:1"
         d="M 0,0 5,-5 -12.5,0 5,5 Z"
         id="path941" />
    </marker>
    <marker
       style="overflow:visible"
       id="TriangleInM-0"
       refX="0"
       refY="0"
       orient="auto">
      <path
         transform="scale(-0.4)"
         style="fill:#154681;fill-opacity:1;fill-rule:evenodd;stroke:#154681;stroke-width:1.00000003pt;stroke-opacity:1"
         d="M 5.77,0 -2.88,5 V -5 Z"
         id="path1077-7" />
    </marker>
    <marker
       style="overflow:visible"
       id="TriangleInM-8"
       refX="0"
       refY="0"
       orient="auto">
      <path
         transform="scale(-0.4)"
         style="fill:#154681;fill-opacity:1;fill-rule:evenodd;stroke:#154681;stroke-width:1.00000003pt;stroke-opacity:1"
         d="M 5.77,0 -2.88,5 V -5 Z"
         id="path1077-70" />
    </marker>
    <marker
       style="overflow:visible"
       id="TriangleInM-0-4"
       refX="0"
       refY="0"
       orient="auto">
      <path
         transform="scale(-0.4)"
         style="fill:#154681;fill-opacity:1;fill-rule:evenodd;stroke:#154681;stroke-width:1.00000003pt;stroke-opacity:1"
         d="M 5.77,0 -2.88,5 V -5 Z"
         id="path1077-7-8" />
    </marker>
    <marker
       style="overflow:visible"
       id="marker1238-0"
       refX="0"
       refY="0"
       orient="auto">
      <path
         transform="scale(-0.4)"
         style="fill:#154681;fill-opacity:1;fill-rule:evenodd;stroke:#154681;stroke-width:1.00000003pt;stroke-opacity:1"
         d="M 5.77,0 -2.88,5 V -5 Z"
         id="path1236-4" />
    </marker>
    <marker
       style="overflow:visible"
       id="TriangleInM-05"
       refX="0"
       refY="0"
       orient="auto">
      <path
         transform="scale(-0.4)"
         style="fill:#154681;fill-opacity:1;fill-rule:evenodd;stroke:#154681;stroke-width:1.00000003pt;stroke-opacity:1"
         d="M 5.77,0 -2.88,5 V -5 Z"
         id="path1077-5" />
    </marker>
    <marker
       style="overflow:visible"
       id="TriangleInM-0-2"
       refX="0"
       refY="0"
       orient="auto">
      <path
         transform="scale(-0.4)"
         style="fill:#154681;fill-opacity:1;fill-rule:evenodd;stroke:#154681;stroke-width:1.00000003pt;stroke-opacity:1"
         d="M 5.77,0 -2.88,5 V -5 Z"
         id="path1077-7-9" />
    </marker>
    <marker
       style="overflow:visible"
       id="marker1238-02"
       refX="0"
       refY="0"
       orient="auto">
      <path
         transform="scale(-0.4)"
         style="fill:#154681;fill-opacity:1;fill-rule:evenodd;stroke:#154681;stroke-width:1.00000003pt;stroke-opacity:1"
         d="M 5.77,0 -2.88,5 V -5 Z"
         id="path1236-8" />
    </marker>
  </defs>
  <metadata
     id="metadata4817">
    <rdf:RDF>
      <cc:Work
         rdf:about="">
        <dc:format>image/svg+xml</dc:format>
        <dc:type
           rdf:resource="http://purl.org/dc/dcmitype/StillImage" />
        <dc:title></dc:title>
      </cc:Work>
    </rdf:RDF>
  </metadata>
  <g
     transform="translate(-65.198629,-92.836514)"
     id="layer1">
    <text
       id="text5367"
       y="112.94485"
       x="63.970963"
       style="font-style:normal;font-variant:normal;font-weight:normal;font-stretch:normal;font-size:10.58333302px;line-height:1.25;font-family:Hack;-inkscape-font-specification:'Hack, Normal';font-variant-ligatures:normal;font-variant-caps:normal;font-variant-numeric:normal;font-feature-settings:normal;text-align:start;letter-spacing:0px;word-spacing:0px;writing-mode:lr-tb;text-anchor:start;fill:#000000;fill-opacity:1;stroke:none;stroke-width:0.26458332"
       xml:space="preserve"><tspan
         style="font-style:normal;font-variant:normal;font-weight:normal;font-stretch:normal;font-size:25.39999962px;font-family:'Fira Sans';-inkscape-font-specification:'Fira Sans, Normal';font-variant-ligatures:normal;font-variant-caps:normal;font-variant-numeric:normal;font-feature-settings:normal;text-align:start;letter-spacing:0px;writing-mode:lr-tb;text-anchor:start;stroke-width:0.26458332"
         y="112.94485"
         x="63.970963"
         id="tspan5365">l<tspan
   id="tspan6676"
   style="fill:none">e</tspan>wp</tspan></text>
    <g
       transform="translate(-4.31301,10.668822)"
       id="text5458"
       style="font-style:normal;font-variant:normal;font-weight:normal;font-stretch:normal;font-size:25.39999962px;line-height:1.25;font-family:'Fira Sans';-inkscape-font-specification:'Fira Sans, Normal';font-variant-ligatures:normal;font-variant-caps:normal;font-variant-numeric:normal;font-feature-settings:normal;text-align:start;letter-spacing:0px;word-spacing:0px;writing-mode:lr-tb;text-anchor:start;fill:#000000;fill-opacity:1;stroke:none;stroke-width:0.26458332"
       aria-label="e" />
    <g
       id="g6681"
       transform="translate(14.484157,7.9064245)">
      <text
         xml:space="preserve"
         style="font-style:normal;font-variant:normal;font-weight:normal;font-stretch:normal;font-size:25.39999962px;line-height:1.25;font-family:'Fira Sans';-inkscape-font-specification:'Fira Sans, Normal';font-variant-ligatures:normal;font-variant-caps:normal;font-variant-numeric:normal;font-feature-settings:normal;text-align:start;letter-spacing:0px;word-spacing:0px;writing-mode:lr-tb;text-anchor:start;fill:#000000;fill-opacity:1;stroke:none;stroke-width:0.26458332"
         x="-1.1062965"
         y="123.73871"
         id="text937-4"
         transform="rotate(-30)"><tspan
           id="tspan935-9"
           x="-1.1062965"
           y="123.73871"
           style="fill:#154681;fill-opacity:1;stroke-width:0.26458332">e</tspan></text>
      <circle
         style="opacity:1;fill:#154681;fill-opacity:1;stroke:none;stroke-width:0.1;stroke-linecap:butt;stroke-linejoin:miter;stroke-miterlimit:4;stroke-dasharray:none;stroke-dashoffset:37.79527664;stroke-opacity:1;paint-order:normal"
         id="path6655"
         cx="62.820446"
         cy="95.271263"
         r="0.80000001" />
    </g>
  </g>
</svg>
